Caption      CommandLine                                                                                                                                                                                             CreationClassName  CreationDate               CSCreationClassName   CSName           Description  ExecutablePath                   ExecutionState  Handle  HandleCount  InstallDate  KernelModeTime  MaximumWorkingSetSize  MinimumWorkingSetSize  Name         OSCreationClassName    OSName                                                               OtherOperationCount  OtherTransferCount  PageFaults  PageFileUsage  ParentProcessId  PeakPageFileUsage  PeakVirtualSize  PeakWorkingSetSize  Priority  PrivatePageCount  ProcessId  QuotaNonPagedPoolUsage  QuotaPagedPoolUsage  QuotaPeakNonPagedPoolUsage  QuotaPeakPagedPoolUsage  ReadOperationCount  ReadTransferCount  SessionId  Status  TerminationDate  ThreadCount  UserModeTime  VirtualSize    WindowsVersion  WorkingSetSize  WriteOperationCount  WriteTransferCount  

conhost.exe  \??\C:\WINDOWS\system32\conhost.exe 0x4                                                                                                                                                                 Win32_Process      20220720220537.571735+480  Win32_ComputerSystem  DESKTOP-B76NTE0  conhost.exe  C:\WINDOWS\system32\conhost.exe                  15132   103                       156250          1380                   200                    conhost.exe  Win32_OperatingSystem  Microsoft Windows 10 专业版|C:\WINDOWS|\Device\Harddisk1\Partition3  37                   942                 2943        6340           44592            6400               2203423899648    11404               8         6492160           15132      8                       120                  8                           120                      0                   0                  1                                   2            156250        2203422851072  10.0.19044      11657216        0                    0                   

python.exe   "C:\Software\Anaconda\python.exe"  "C:\Software\Anaconda\Scripts\locust.exe" -f D:\MicrosvcDiagnose\microsvcDiagnoser\src\main\java\com\tcse\microsvcdiagnoser\exector\locustExec2.py --headless -t 5s  Win32_Process      20220720220537.598195+480  Win32_ComputerSystem  DESKTOP-B76NTE0  python.exe   C:\Software\Anaconda\python.exe                  41228   240                       4531250         1380                   200                    python.exe   Win32_OperatingSystem  Microsoft Windows 10 专业版|C:\WINDOWS|\Device\Harddisk1\Partition3  26084                1568126             13140       40860          44592            41028              4483121152       50640               8         41840640          41228      46                      239                  47                          240                      1266                7262844            1                                   4            17812500      4472963072     10.0.19044      51789824        33                   4081                



Caption      CommandLine                                                                                                                                                                                             CreationClassName  CreationDate               CSCreationClassName   CSName           Description  ExecutablePath                   ExecutionState  Handle  HandleCount  InstallDate  KernelModeTime  MaximumWorkingSetSize  MinimumWorkingSetSize  Name         OSCreationClassName    OSName                                                               OtherOperationCount  OtherTransferCount  PageFaults  PageFileUsage  ParentProcessId  PeakPageFileUsage  PeakVirtualSize  PeakWorkingSetSize  Priority  PrivatePageCount  ProcessId  QuotaNonPagedPoolUsage  QuotaPagedPoolUsage  QuotaPeakNonPagedPoolUsage  QuotaPeakPagedPoolUsage  ReadOperationCount  ReadTransferCount  SessionId  Status  TerminationDate  ThreadCount  UserModeTime  VirtualSize    WindowsVersion  WorkingSetSize  WriteOperationCount  WriteTransferCount  

conhost.exe  \??\C:\WINDOWS\system32\conhost.exe 0x4                                                                                                                                                                 Win32_Process      20220720220537.571735+480  Win32_ComputerSystem  DESKTOP-B76NTE0  conhost.exe  C:\WINDOWS\system32\conhost.exe                  15132   103                       156250          1380                   200                    conhost.exe  Win32_OperatingSystem  Microsoft Windows 10 专业版|C:\WINDOWS|\Device\Harddisk1\Partition3  37                   942                 2943        6340           44592            6400               2203423899648    11404               8         6492160           15132      8                       120                  8                           120                      0                   0                  1                                   2            156250        2203422851072  10.0.19044      11657216        0                    0                   

python.exe   "C:\Software\Anaconda\python.exe"  "C:\Software\Anaconda\Scripts\locust.exe" -f D:\MicrosvcDiagnose\microsvcDiagnoser\src\main\java\com\tcse\microsvcdiagnoser\exector\locustExec2.py --headless -t 5s  Win32_Process      20220720220537.598195+480  Win32_ComputerSystem  DESKTOP-B76NTE0  python.exe   C:\Software\Anaconda\python.exe                  41228   240                       4531250         1380                   200                    python.exe   Win32_OperatingSystem  Microsoft Windows 10 专业版|C:\WINDOWS|\Device\Harddisk1\Partition3  26084                1568126             13140       40860          44592            41028              4483121152       50640               8         41840640          41228      46                      239                  47                          240                      1266                7262844            1                                   4            17812500      4472963072     10.0.19044      51789824        33                   4081                



